<?xml version="1.0" encoding="utf-8"?>
<!-- Generator: Adobe Illustrator 16.0.0, SVG Export Plug-In . SVG Version: 6.00 Build 0)  -->
<!DOCTYPE svg PUBLIC "-//W3C//DTD SVG 1.1//EN" "http://www.w3.org/Graphics/SVG/1.1/DTD/svg11.dtd">
<svg version="1.1" id="Camada_1" xmlns="http://www.w3.org/2000/svg" xmlns:xlink="http://www.w3.org/1999/xlink" x="0px" y="0px"
	 width="11.167px" height="19.072px" viewBox="0 0 11.167 19.072" enable-background="new 0 0 11.167 19.072" xml:space="preserve">
<path fill="#FFFFFF" d="M3.184,19.072H6.7v-8.599h3.279l0.238-3.125H6.7V5.001c0-0.913,0.173-1.565,1.367-1.565h2.021l0.13-2.949
	c0,0-1.02-0.174-2.345-0.174c-3.298,0-4.688,2.083-4.688,4.299v2.737H0.838v3.125h2.346V19.072z"/>
</svg>
